,,Salary,Lifetime Earnings,Occupations,Some College,Access,Training,Education,Field of Study,Economy,Skilled Services,Admissions,State (TBD),Postsecondary,Opportunity,Women,Hispanics,Latinos,African Americans,Blacks,Immigrants,Adult Learners,Asian,Native American,Race,Ethnicity,Culture,Inequality,Access,Completion,Debt,Certificates,Associates,Bachelors,Graduate,STEM,Healthcare,Unemployment,Equity,Diversity,Graduation Rates,SAT,Income Mobility,Affirmative Action,Return on Investment,Wage Premium,Gender,Job Openings,Recovery,Low-Income,Working Students,Career Pathways,,,,,
Publication,Reports (tag with report web tags),,,,,,,,,,,,,,,,,,,,,,,,,,,,,,,,,,,,,,,,,,,,,,,,,,,,,,,,
,The Way We Were,,,x,,,,,,x,x,,,,,,,,,,,,,,,,,,,,,,,,,,,,,,,,,,,,,x,,,,,,,,,
,SAT-only Admission,,,,,x,,x,,,,x,,,,,x,x,x,x,,,x,,x,x,,x,,,,,,,,,,,x,x,,x,,,,,x,,,x,,,,,,,
,Upskilling and Downsizing in American Manufacturing,x,,x,x,x,,x,,x,x,,,x,,,,,,,,,,,,,,,,,,x,,,,,,,,,,,,,,,,,,,,x,,,,,
,"Born to Win, Schooled to Lose",,,x,,,,x,,,,x,,x,x,,x,x,x,x,,,x,,x,x,x,x,x,,,,,,,x,,,x,,,,x,,,,,,,x,,,,,,,
,Our Separate & Unequal Public Colleges,,,,,x,,x,,,,x,x,x,,,x,x,x,x,,,,,x,x,,x,x,,,,,,,,,,x,x,x,x,,,,,,,,,,,,,,,
,Three Educational Pathways,,,x,,,,,,x,x,,,x,,,,,,,,,,,,,,,,,,,x,x,,,,,,,,,,,,,,,,,,x,,,,,
,Balancing Work and Learning,,,,,,x,x,,x,,,,x,,,x,x,x,x,,,,,,,,,,x,,,,,,,,,,,,,,,,,,,,x,x,x,,,,,
,Rocky Mountain Divide,,,,,,,x,,,,,x,,,,,x,,,,,,,,,,,,,,,x,x,,,,,x,,x,,,,,,,,,,,,,,,,
,Women in Politics,,,,,,,,,,,,,,,,,,,,,,,,,,,,,,,,,,,,,,x,x,,,,,,,x,,,,,,,,,,
,Certificates in Oregon,,,,,,,,,,x,,,,,,,,,,,,,,,,,,,,,,,,,,,,,,,,,,,,,,,,,,,,,,
,Five Rules of the College and Career Game,x,x,,,,,x,x,,,,,x,,,,,,,,,,,,,,,,x,,,x,x,x,,,,,,,,,,,,,,,,,x,,,,,
,Women Can't Win,x,x,x,,,,x,x,,,,,x,,x,,,,,,,,,,,,,,,,,,,,x,,,x,,,,x,,,,x,,,,,x,,,,,
,Good Jobs States,,,x,x,,x,x,,x,x,,x,,,,,,,,,,,,,,,,,,,,x,x,,,,,,,,,,,,x,,x,,,,x,,,,,
,Latino Education and Economic Progress,,,,,,,x,x,x,,,,x,,,,x,,,,,,,,,,,,,,,,,,,,,,,,,,,,,,,,,,x,,,,,
,Nursing,x,,x,,,,x,,,,,,x,,x,,,,,,,,,,,,,,,,,,,,,x,,,x,,,x,,,,x,,,,,x,,,,,
,Good Jobs that Pay without a BA,x,,x,x,,,x,,x,x,,,x,,,,,,,,,,,,,,,,,,,x,,,,,,,,,,,,,,,,,,,,,,,,
,Major Matters Most,,,,,,,x,x,,,,,x,,,,,,,,,,,,,,,,,,,,x,,,,,,,,,,,x,,,,,,,,,,,,
,Career Pathways,,,,,,,,,,,,,,,,,,,,,,,,,,,,,,,,,,,,,,,,,,,,,,,,,,,,,,,,
,The 20% Solution,,,,,x,,x,,,,x,,x,,x,x,x,x,x,,,check,,x,x,,x,x,,,,,,,,,,x,x,,,,,,,x,,,x,,,,,,,
,America's Divided Recovery,,,x,x,,,,,x,x,,,x,,,,,,,,,,,,,,,,,,,x,x,,x,x,,,,,,,,,,,,x,,,x,,,,,
,African Americans,,x,,,,,,,,,,,x,,,,,x,x,,,,,x,,,,,,,,,,,,,,,x,,,,,,,,,,,,,,,,,
,Pennsylvania,,,,,,,,,,,,,,,,,,,,,,,,,,,,,,,,,,,,,,,,,,,,,,,,,,,,,,,,
,Six Million Missing Jobs,,,x,,,,,,x,,,,x,,,,,,,,,,,,,,,,,,,,,,,,,,,,,,,,,,,x,,,,,,,,
,Ranking Your College ,x,,,,,,x,,,,,,x,,,,,,,,,,,,,,,,,,,,,,,,,,,,,,,,,,,,,,,,,,,
,Iowa,,,,,,,,,,,,,,,,,,,,,,,,,,,,,,,,,,,,,,,,,,,,,,,,,,,,,,,,
,Learning While Earning,,,,,,,,,,,,,x,,,,,,,,,,,,,,,,,,,,,,,,,,,,,,,,,,,,,x,,,,,,
,Hispanics,,x,,,,,,x,,,,,x,,,,x,,,,,,,,,,,,,,,,x,x,,,,,,,,,,,,,,,,,,,,,,
,Good Jobs are Back,,,x,,,,x,,x,,,,,,,,,,,,,,,,,,,,,,,,,,,,,,,,,,,,,,,,,,,,,,,
,The Economic Value of College Majors,x,,,,,,x,x,,,,,x,,,,,,,,,,,,,,,,,,,,x,x,,,,,,,,,,,,,,,,,,,,,,
,The Economy Goes to College,,x,,,,,,x,x,,,,x,,,,,,,,,,,,,,,,,,,,x,x,,,,,,,,,,,,,,,,,,,,,,
,States Online College Job Market,,,x,,,,,,,,,,,,,,,,,,,,,,,,,,,,,,,,,,,,,,,,,,,,x,,,,,,,,,
,Nursing: Supply and Demand Through 2020,,x,x,,,x,x,x,,,,,x,,x,x,x,x,x,x,,x,,x,x,,,,,,,,x,x,,,,,,,,,,,,,,,,,,,,,,
,From Hard Times to Better Times,,,,,,,x,x,x,,,,x,x,,,,,,,,,,,,,,,,,,,x,x,,,x,,,,,,,,,,,x,,,,,,,,
,College is Just the Beginning,,,x,,x,x,,,,,,,,,,,,,,,,,,,,,,,,,,,,,,,,,,,,,,,,,,,,,,,,,,
,The Online College Labor Market,,,x,,,,x,,,,,,x,,,,,,,,,,,,,,,,,,,,,,,,,,,,,,,,,,,,,x,x,,,,,
,Failure to Launch,x,x,,,,,,,,,,,,,,,,,,,,,,,,,,,,,,,,,,,x,,,,,x,,,,,,,,,x,,,,,
,The Summer Surge in College Unemployment,,,x,,,,,,x,,,,x,,,,,,,,,,,,,,,,,,,,x,,,,x,,,,,,,,,,,,,,,,,,,
,Separate & Unequal,,,,,x,,,,,,,,,x,,,x,x,x,,,,,x,,,,,,,,,,,,,,,,,,,,,,,,,,,,,,,,
,Recovery 2020,x,x,x,,,,x,,x,,,,x,x,,,,,,,,,,,,,,,,,,,,,,,x,,,,,,,,,,x,,,,,,,,,
,Hard Times 2013,x,,x,,,,,x,x,,,,x,,,,,,,,,,,,,,,,,,,,x,x,,,x,,,,,,,,,,,x,,,,,,,,
,Career and Technical Education,,,x,,,,x,x,,,,,x,,,,,,,,,,,,,,,,,,,,,,x,x,,,,,,x,,x,,,,,,,x,,,,,
,The College Advantage ,,,,,,,,,x,,,,,,,,,,,,,,,,,,,,,,,,x,,,,,,,,,,,,,,x,x,,,x,,,,,
,A Decade Behind,,,x,,,,x,,x,x,,,,,,,,,,,,,,,,,,,,,,,,,,,,,,,,,,,,,,,x,,,,,,,
,Healthcare,,,,,,,,,,,,,,,,,,,,,,,,,,,,,,,,,,,x,x,,,,,,,,,,,,,,,,,,,,
,Certificates ,,,,,,,,,,,,,,,,x,,,,,,,,,,,,,,x,x,x,,,x,,,,,,,,,,,,,,,,,,,,,
,Hard Times 2012,check,,x,,,,,,,,,,,,,,,,,,,,,,,,,,,,,,,x,x,,x,,,,,,,,,,,x,,,,,,,,
,Career Clusters,,,x,,,,x,x,,x,,,x,,,,,,,,,,,,,,,,,,,,,,,,,,,,,x,,,,,,,x,x,x,,,,,
,STEM,x,x,x,x,,,,,x,,,,,,x,x,x,x,x,x,,x,,x,x,,,,,,,,,,x,,,x,,,,,,,,x,,,,,,,,,,
,The Midwest Challenge,,,x,x,,,x,x,x,x,,,x,,,,,,,,,,,,,,,,,,,,,,,x,,,,,,,,,,,,x,,,,,,,,
,The College Payoff,,x,x,x,,,x,,,,,,x,,x,x,x,x,x,,,x,,x,x,,x,,,,,x,x,x,,,,,,,,,,,x,x,,,,,,,,,,
,The Undereducated American,,,,,,,x,,x,,,,,x,,,,,,,,,,,,,,,,,,,,,,,,,,,,,,,,,,,,,,,,,,
,The Undereducated American,,,,,,,x,,,,,,,x,,,,,,,,,,x,,,,,,,,,,,,,,,x,,,,,,,x,,,,,,,,,,
,What's it Worth? The Economic Value of College Majors,x,,,,,,x,x,,,,,x,,check,check all-->,,,,,,,,,,,,,,,,,x,x,x,,,,,,,,,,,,,,,,,,,,,
,Help Wanted,x,x,x,x,,x,x,,x,,,x,x,x,,,,,,,,,,,,,,,,,x,x,x,x,x,x,,x,,,,x,,,x,,x,,,,x,,,,,
Press Room,Newsletter (tag with intro letter topics),,,,,,,,,,,,,,,,,,,,,,,,,,,,,,,,,,,,,,,,,,,,,,,,,,,,,,,,
,Spring Newsletter: Decoding the various free college proposals,,,,,,,X,,,,,,,,,,,,,,,,,,,,,X,,X,,,,,,,,,,,,,,,,,,,,,,,,,,
,Winter Newsletter: Measuring the economic value of programs vs. institutions,X,,X,,,,,,,,,,,,,,,,,,,,,,,,,,,,,,,,,,,,,,,,,,,,,,,,X,,,,,
,Fall Newsletter: How to mend our divided public higher education system,,,,,,,,,,,,,,,,,,,,,,,,,,,X,,,,,,,,,,,,X,,X,,,,,,,,,,,,,,,
,Summer Newsletter: Building stronger connections between learning and work is integral for today's students,,,,,,,,,,,,,,,,,,,,,,,,,,,,,,X,,,,,,,,,,,,,,,,,,,,X,X,,,,,
,Spring Newsletter: Examining an outcomes-based earnings standard for all postsecondary education programs,,X,,,,,,,,,,,,,,,,,,,,,,,,,,,,,,,,,,,,,,,,,,X,,,,,,,,,,,,
,"Winter Newsletter: Breaking down the silos between K-12, postsecondary education, and the labor force",,,,,,,X,,,,,,,,,,,,,,,,,,,,,,,,,,,,,,,,,,,,,,,,,,,,X,,,,,
,Summer Newsletter: Taking a closer look at the non-BA job market,,,,X,,X,,,,,,,,,,,,,,,,,,,,,,,,,X,X,,,,,,,,,,,,,,,,,,,,,,,,
,Spring Newsletter: Improving transparency and student outcomes,,,,,,,X,,,,,,X,,,,,,,,,,,,,,,,,,,,,,,,,,,,,,,,,,,,,,,,,,,
,Winter Newsletter: The jobs quality phase of the economic debate begins,,,,X,,,,,,,,,,X,,,,,,,,,,,,,,,,,,,,,,,X,,,,,,,,,,X,X,,,,,,,,
,Fall Newsletter: CEW explores transparency in higher ed,,,,,,,,,,,,,X,,,,,,,,,,,,,,,,,,,,,,,,,,,X,,,,,,,,,,,,,,,,
,Summer Newsletter: CEW's Role as Your Resource,,,,,,,,,,,,,,,,,,,,,,,,,,,,,,,,,,,,,,,,,,,X,,,,X,,,,,,,,,
,Spring Newsletter: Conversations on College in the Presidential Election,,,,,,,,,,,,,X,,,,,,,,,,,,,,,X,,X,,,,,,,,,,,,,,,,,,,,,,,,,,
,Winter Newsletter: Reflecting and Looking Ahead to New CEW Projects,,,,,,,,,,,,,,,,,,,,,,,,,,,,,,,,,,,,,,,X,,,,X,,,,,,,,,,,,,
,Fall Newsletter: Fall Brings New Faces to CEW,,,,,,,,,,,,,,,,,,,,,,,,,,,,,,,,,,,,,,,,,,,,,,,,,,,,,,,,
,Summer Newsletter: What's New This Summer at CEW?,,,,,,,,,,,,X,X,,,,,,,,,,,,,,,,,,,,,,,,,,,,,,,,,,X,,,,,,,,,
,Spring Newsletter: CEW Makes the State of the Union,,,,X,,X,,,,,,,,,,,,,,,X,,,,,,,,,,,,,,,,,,,,,,,,,,,,,,,,,,,
,"New Year, New Website!",,,,,,,,,,,,,,,,,,,,,,,,,,,,,,,,,,,,,,,,,,,,,,,,,,,,,,,,
,Fall Brings Us an Important Message About ACS & More!,,,,,,,,,,,,X,,,,,,,,,,,,,,,,,,,,,,,,,,,,,,,,,,,,,,,,,,,,
,Summer is over! Take a look at what we have done!,,,,,,,,,,,,,X,,,,,,,,,,,,,,,,,,,,,,,,,,,,,,,,,,X,,,,,,,,,
,New BLS Projections and our 2013 Year-in-Review,,,,,,,X,,,,,,,,,,,,,,,,,,,,,,,,,,,,,,,,,,,,,,,,X,,,,,,,,,
,,,,,,,,,,,,,,,,,,,,,,,,,,,,,,,,,,,,,,,,,,,,,,,,,,,,,,,,,
Publication,Journals/Articles,,,,,,,,,,,,,,,,,,,,,,,,,,,,,,,,,,,,,,,,,,,,,,,,,,,,,,,,
,"May the Best Woman Win?: Education and Bias against
Women in American Politics",x,x,,,,,x,x,,,,,x,,x,,,,,,,,,,,,,,,,,,,,x,,,x,,,,x,,,,x,,,,,x,,,,,
,Educational Adequacy in the Twenty-First Century,x,,,x,x,x,x,,,,,,x,,,,,,,,,,,,,,,x,,,,,,,,,,,,,,,,,,,,,,,,,,,,
,"Nursing: A closer look at
workforce opportunities,
education and wages",x,,x,,,,,,,,,,x,,x,,,,,,,,,,,,,,,,,,,,,x,,,x,,,x,,,,x,,,,,x,,,,,
,"The Forgotten 500,000
College-ready Students
Methodology",,,,,x,,x,,x,,,,x,,,,,,,,,,,,,,,,,,,,,,,,,,,,x,x,,,,,,,,,,,,,,
,"Testimony of Anthony P.
Carnevale before the US Senate
Committee on Health, Education,
Labor, and Pensions",,x,,x,,,,,,,,,x,,,,,,,,,,,,,,,,x,,,,,,,,,,,x,,,,x,,,,,,,,,,,,
,"We Need a New Deal Between
Higher Education and
Democratic Capitalism",,,,,,,x,x,x,,,,x,,,,,,,,,,,,,,,,,,,,,,,,,,,,,,,,,,,,,,,,,,,
,"Trillion Dollar Infrastructure
Proposals Could Create
Millions of Jobs",,,x,,,x,,,x,,,,,,,,,,,,,,,,,,,,,,,,,,,,,,,,,,,,,,x,x,,,,,,,,
,"The Enrollment Effects of
Clinton’s Free College Proposal",,,,,x,,x,,,,x,,x,x,,,,,,,,,,,,,,,,,,,x,,,,,x,x,,,,,,,,,,,,,,,,,
,"The Concept of “Mismatch” at
Play in the Supreme Court Fisher
Decision is Empirically Unsound",,,,,,,,,,,x,,x,,,,,,,,,,,x,x,,,,,,,,,,,,,,,,,,x,,,,,,x,,,,,,,
,"From to College to Career:
Making Sense of the
Post-Millennial Job Market",,,,,,,,,,,,,,,,,,,,,,,,x,,,,,,,,,,,,,,,,,,,,,,x,x,x,,,x,,,,,
,"Credentials And Competencies:
Demonstrating The Economic
Value Of
Postsecondary Education",,,,,,,x,x,x,,,,x,x,,,,,,,,,,,,,,,,,x,x,x,,,,,,,,,,,,,,,,,,x,,,,,
,"Sharp Declines in
Underemployment for College
Graduates",,,,,,,x,,x,,,,,,,,,,,,,,,x,,,,,,,,,x,,,,x,,,,,,,,,x,,,,,,,,,,
,"From College to Jobs: Making
Sense of Labor Market Returns
to Higher Education",,x,,,,,,x,,,,,x,,,,,,,,,,,,,,,,,,,,,,,,,,,,,,,x,,,,,,,x,,,,,
,"Learn & Earn: Career Pathways
for Youth in the 21st Century",,,,,,x,x,,,,,,x,,,,,,,,,,,,,,,,,,x,x,x,,,,,,,,,,,,,,,,,,x,,,,,
,"Workplace Basics: the skills
employees need and
employers want",,,,,,x,x,,,,,,,,,,,,,,,,,,,,,,,,,,,,,,,,,,,,,,,,,,,,,,,,,
,"Certificates and Certifications
Making the Difference",,,,,,,,,,,,,,,,,,,,,,,,,,,,,,,x,x,x,,,,,,,,,,,,,,,,,,,,,,,
,"Getting More Bang for Our
College Bucks",,x,x,,,,x,,,,,,,x,,,,,,,,,,,,,,,,,,,,,,,,,,,,,,x,,,,,,,,,,,,
,"21st Century Competencies for
College and Career Readiness",,,,,,x,,,,,,,,,,,,,,,,,,,,,,,,,,,,,x,x,,,,,,,,,,,,,,,,,,,,
,Skills Match,,,x,,,,x,,x,,,,,,,,,,,,,,,,,,,,,,,,,,,,x,,,,,,,,,,x,x,,,x,,,,,
,Measuring Green Jobs,,,x,,,x,,,,,,x,,,,,,,,,,,,,,,,,,,,,,,,,,,,,,,,,,,x,,,,,,,,,
,,,,,,,,,,,,,,,,,,,,,,,,,,,,,,,,,,,,,,,,,,,,,,,,,,,,,,,,,
Press Room,PowerPoint (Emma),,,,,,,,,,,,,,,,,,,,,,,,,,,,,,,,,,,,,,,,,,,,,,,,,,,,,,,,
,The Way We Were: The Changing Geography of US Manufacturing From 1940 to 2016,,,x,,,,,,x,x,,,,,,,,,,,,,,,,,,,,,,,,,,,,,,,,,,,,,x,,,,,,,,,
,Upskilling and Downsizing in American Manufacturing,,,x,,x,,x,,x,x,,,x,,,,,,,,,,,,,,,,,,x,,,,,,,,,,,,,,,,,,,,x,,,,,
,"Born to Win, Schooled to Lose: Why Equally Talented Students Don't Get Equal Chances to Be All They Can Be",,,x,,,,x,,,,x,,,,,,,,,,,,,x,,,,x,,,,,,,x,,,x,,,,,,,,,,,,,,,,,,
,Our Seperate & Unequal Public Colleges: How Public Colleges Reinforce White Racial Privilege and Marginalize Black and Latino Students,,,,,,,x,,,,x,,x,,,,,,,,,,,x,,,,,,,,,,,,,,x,,,x,,,,,,,,,,,,,,,
,"Three Educational Pathways to Good Jobs: High School, Middle Skills, and Bachelor's Degree",,,x,,,,,,x,x,,,x,,,,,,,,,,,,,,,,,,,x,x,,,,,,,,,,,,,,,,,,x,,,,,
,Balancing Work and Learning: Implications for Low-Income Students,,,,,,,,,x,,,,x,,,,,,,,,,,,,,,,x,,,,,,,,,,,,,,,,,,,,x,x,,,,,,
,Five Rules of the College and Career Game,,x,,,,,,x,,,,,x,,,,,,,,,,,,,,,,x,,,x,x,x,,,,,,,,,,,,,,,,,x,,,,,
,"Women Can't Win: Despite Making Educational Gains and Pursuing High-Wage Majors, Women Still Earn Less than Men",x,x,,,,,x,x,,,,,x,,x,,,,,,,,,,,,,,,,,,,,x,,,x,,,,x,,,,x,,,,,x,,,,,
,Latino Education and Economic Progress: Running Faster but Still Behind,,,,,,,x,x,x,,,,x,,,,x,,,,,,,,,,,,,,,,,,,,,,,,,,,,,,,,,,x,,,,,
,Nursing: Can it Remain a Source of Upward Mobility Amidst Healthcare Turmoil?,x,,x,,,,,,,,,,x,,x,,,,,,,,,,,,,,,,,,,,,x,,,x,,,x,,,,x,,,,,x,,,,,
,Career Pathways: Five Ways to Connect College and Careers,,,,,,,,,,,,,,,,,,,,,,,,,,,,,,,,,,,,,,,,,,,,,,,,,,,,,,,,
,The 20% Solution: Selective Colleges Can Afford to Admit More Pell Grant Recipients,,,,,x,,,,,,x,,x,,,,,,,,,,,,,,,x,,,,,,,,,,,,,,,,,,,,,x,,,,,,,
,America's Divided Recovery: College Haves and Have-Nots,,,x,x,,,,,x,x,,,x,,,,,,,,,,,,,,,,,,,x,x,,x,x,,,,,,,,,,,,x,,,x,,,,,
,African Americans: College Majors and Earnings,,x,,,,,,,,,,,x,,,,,x,x,,,,,x,,,,,,,,,,,,,,,x,,,,,,,,,,,,,,,,,
,Six Million Missing Jobs,,,x,,,,,,x,,,,x,,,,,,,,,,,,,,,,,,,,,,,,,,,,,,,,,,,x,,,,,,,,
,Learning While Earning: The New Normal,,,,,,,,,,,,,x,,,,,,,,,,,,,,,,,,,,,,,,,,,,,,,,,,,,,x,,,,,,
,Good Jobs Are Back,,,x,,,,x,,x,,,,,,,,,,,,,,,,,,,,,,,,,,,,,,,,,,,,,,,,,,,,,,,
,The Economic Value of College Majors,,x,,,,,,x,,,,,x,,,,,,,,,,,,,,,,,,,,x,x,,,,,,,,,,,,,,,,,,,,,,
,The Economy Goes to College,,x,,,,,,x,x,,,,x,,,,,,,,,,,,,,,,,,,,x,x,,,,,,,,,,,,,,,,,,,,,,
,States Online College Job Market: Ranking The States,,,x,,,,,,,,,,,,,,,,,,,,,,,,,,,,,,,,,,,,,,,,,,,,x,,,,,,,,,
,Nursing: Supply and Demand Through 2020,,x,,,,,,x,,,,,x,,,,,,,,,,,,,,,,,,,,x,x,,,,,,,,,,,,,,,,,,,,,,
,From Hard Times to Better Times,,x,,,,,,x,x,,,,x,,,,,,,,,,,,,,,,,,,,x,x,,,x,,,,,,,,,,,x,,,,,,,,
,College Is Just the Beginning,,,x,,x,x,,,,,,,,,,,,,,,,,,,,,,,,,,,,,,,,,,,,,,,,,,,,,,,,,,
,The Online College Labor Market,,x,,,,,,x,,,,,,,,,,,,,,,,,,,,,,,,,,,,,,,,,,,,,x,x,,,,,,,,,,
,Failure To Launch,x,x,,,,,,,,,,,,,,,,,,,,,,,,,,,,,,,,,,,x,,,,,x,,,,,,,,,x,,,,,
,The Summer Surge In College Unemployment,,,x,,,,,,x,,,,x,,,,,,,,,,,,,,,,,,,,x,,,,x,,,,,,,,,,,,,,,,,,,
,Seperate & Unequal,,,,,x,,,,,,,,,x,,,x,x,x,,,,,x,,,,,,,,,,,,,,,,,,,,,,,,,,,,,,,,
,Separados y Desiguales,,,,,x,,,,,,,,,x,,,x,x,x,,,,,x,,,,,,,,,,,,,,,,,,,,,,,,,,,,,,,,
,Recovery: Job Growth and Education Requirements Through 2020,x,x,x,,,,,,x,,,,,,,,,,,,,,,,,,,,,,,,,,,,x,,,,,,,,,,x,,,,,,,,,
,Tiempos Difíciles 2013,,x,x,,,,,x,x,,,,x,,,,,,,,,,,,,,,,,,,,x,x,,,x,,,,,,,,,,,,,,,,,,,
,Hard Times 2013,,x,x,,,,,x,x,,,,x,,,,,,,,,,,,,,,,,,,,x,x,,,x,,,,,,,,,,,,,,,,,,,
,Career and Technical Education,,,x,,,,x,x,,,,,x,,,,,,,,,,,,,,,,,,,,,,x,x,,,,,,x,,x,,,,,,,x,,,,,
,The College Advantage: Weathering the Economic Storm,,,,,,,,,x,,,,,,,,,,,,,,,,,,,,,,,,x,,,,,,,,,,,,,,x,x,,,x,,,,,
,A Decade Behind: Breaking Out of the Low-Skill Trap in the Southern Economy,,,,,,,,,x,x,,,,,,,,,,,,,,,,,,,,,,,,,,,,,,,,,,,,,,,x,,,,,,,
,Healthcare,,,,,,,,,,,,,,,,,,,,,,,,,,,,,,,,,,,x,x,,,,,,,,,,,,,,,,,,,,
,Certificates: Gatewy to Gainful Employment and College Degrees,,,,,,,,,,,,,,,,x,,,,,,,,,,,,,,x,x,x,,,x,,,,,,,,,,,,,,,,,,,,,
,Hard Times 2012,,x,x,,,,,,,,,,,,,,,,,,,,,,,,,,,,,,,x,x,,x,,,,,,,,,,,x,,,,,,,,
,Career Clusters,,,,,,,,,,x,,,,,,,,,,,,,,,,,,,,,,,,,,,,,,,,x,,,,,,,x,x,x,,,,,
,STEM,,x,x,,,,,,,,,,,,,,,,,,,,,,,,,,,,,,,,x,,,,,,,,,,,,,,,,,,,,,
,The Midwest Challenge: Matching Jobs with Education in the Post-Recession Economy,,,,,,,,,,,,,,,,,,,,,,,,,,,,,,,,,,,,,,,,,,,,,,,,,,,,,,,,
,The College Payoff,,,,,,,,,,,,,,,,,,,,,,,,,,,,,,,,,,,,,,,,,,,,,,,,,,,,,,,,
,The Undereducated American,,,,,,,,,,,,,,,,,,,,,,,,,,,,,,,,,,,,,,,,,,,,,,,,,,,,,,,,
,What's It Worth?: The Economic Value of College Majors,,,,,,,,,,,,,,,,,,,,,,,,,,,,,,,,,,,,,,,,,,,,,,,,,,,,,,,,
,Help Wanted: Projections of Jobs and Education Requirements Through 2018,,,,,,,,,,,,,,,,,,,,,,,,,,,,,,,,,,,,,,,,,,,,,,,,,,,,,,,,
,,,,,,,,,,,,,,,,,,,,,,,,,,,,,,,,,,,,,,,,,,,,,,,,,,,,,,,,,
Press Room,Video (CP),,,,,,,,,,,,,,,,,,,,,,,,,,,,,,,,,,,,,,,,,,,,,,,,,,,,,,,,
,Upskilling and Downsizing in American Manufacturing,,,x,,x,,x,,x,x,,,x,,,,,,,,,,,,,,,,,,x,,,,,,,,,,,,,,,,,,,,x,,,,,
,"Born to Win, Schooled to Lose",,,x,,,,x,,,,x,,,,,,,,,,,,,x,,,,x,,,,,,,x,,,x,,,,,,,,,,,,,,,,,,
,The future of higher education,,,,,,,,,,,,,,,,,,,,,,,,,,,,,,,,,,,,,,,,,,,,,,,,,,,,,,,,
,"A decade of new insights on college, training, jobs",,,,,,,,,,,,,,,,,,,,,,,,,,,,,,,,,,,,,,,,,,,,,,,,,,,,,,,,
,Our Separate & Unequal Public Colleges,,,,,,,x,,,,x,,x,,,,,,,,,,,x,,,,,,,,,,,,,,x,,,x,,,,,,,,,,,,,,,
,Three Educational Pathways,,,x,,,,,,x,x,,,x,,,,,,,,,,,,,,,,,,,x,x,,,,,,,,,,,,,,,,,,x,,,,,
,White Flight in America's Colleges,,,,,,,,,,,,,,,,,,,,,,,,,,,,,,,,,,,,,,,,,,,,,,,,,,,,,,,,
,About CEW,,,,,,,,,,,,,,,,,,,,,,,,,,,,,,,,,,,,,,,,,,,,,,,,,,,,,,,,
,Five Rules of the College and Career Game,,x,,,,,,x,,,,,x,,,,,,,,,,,,,,,,x,,,x,x,x,,,,,,,,,,,,,,,,,x,,,,,
,Higher Education & the Labor Market,,,,,,,,,,,,,,,,,,,,,,,,,,,,,,,,,,,,,,,,,,,,,,,,,,,,,,,,
,"Smerconish's Guest Dr. Carnevale on Vocational
Schools VS. Higher Ed",,,,,,,,,,,,,,,,,,,,,,,,,,,,,,,,,,,,,,,,,,,,,,,,,,,,,,,,
,Women Can't Win,x,x,,,,,x,x,,,,,x,,x,,,,,,,,,,,,,,,,,,,,x,,,x,,,,x,,,,x,,,,,x,,,,,
,Retraining and Retooling Workers,,,,,,,,,,,,,,,,,,,,,,,,,,,,,,,,,,,,,,,,,,,,,,,,,,,,,,,,
,"Testimony of Anthony P. Carnevale on Reauthorizing
the Higher Education Act",,,,,,,,,,,,,,,,,,,,,,,,,,,,,,,,,,,,,,,,,,,,,,,,,,,,,,,,
,"The Forgotten 500,000 College-ready Students",,,,,,,,,,,,,,,,,,,,,,,,,,,,,,,,,,,,,,,,,,,,,,,,,,,,,,,,
,Latino Education and Economic Progress,,,,,,,x,x,x,,,,x,,,,x,,,,,,,,,,,,,,,,,,,,,,,,,,,,,,,,,,x,,,,,
,Good Jobs that Pay without a BA,x,,x,x,,,x,,x,x,,,x,,,,,,,,,,,,,,,,,,,x,x,,,,,,,,,,,,,,,,,,x,,,,,
,What Does Society Want from Colleges and Universities?,,,,,,,,,,,,,,,,,,,,,,,,,,,,,,,,,,,,,,,,,,,,,,,,,,,,,,,,
,Is There a National Fix for the Workforce?,,,,,,,,,,,,,,,,,,,,,,,,,,,,,,,,,,,,,,,,,,,,,,,,,,,,,,,,
,Skills Gap in Manufacturing Jobs,,,,,,,,,,,,,,,,,,,,,,,,,,,,,,,,,,,,,,,,,,,,,,,,,,,,,,,,
,Economic Challenges Facing African Americans,,,,,,,,,,,,,,,,,,,,,,,,,,,,,,,,,,,,,,,,,,,,,,,,,,,,,,,,
,Rethinking College,,,,,,,,,,,,,,,,,,,,,,,,,,,,,,,,,,,,,,,,,,,,,,,,,,,,,,,,
,WorkingNation Series - Take a Seat at the Table,,,,,,,,,,,,,,,,,,,,,,,,,,,,,,,,,,,,,,,,,,,,,,,,,,,,,,,,
,Credentials and Competencies,,,,,,,,,,,,,,,,,,,,,,,,,,,,,,,,,,,,,,,,,,,,,,,,,,,,,,,,
,America's Divided Recovery,,,x,x,,,,,x,x,,,x,,,,,,,,,,,,,,,,,,,x,x,,x,x,,,,,,,,,,,,x,,,x,,,,,
,African Americans: College Majors and Earnings,,x,,,,,,,,,,,x,,,,,x,x,,,,,x,,,,,,,,,,,,,,,x,,,,,,,,,,,,,,,,,
,Webinar: What Counselors Should Know about 21st Century Skills,,,,,,,,,,,,,,,,,,,,,,,,,,,,,,,,,,,,,,,,,,,,,,,,,,,,,,,,
,Should More Kids Skip College for Workforce Training?,,,,,,,,,,,,,,,,,,,,,,,,,,,,,,,,,,,,,,,,,,,,,,,,,,,,,,,,
,"Degrees, Costs, and Benefits",,,,,,,,,,,,,,,,,,,,,,,,,,,,,,,,,,,,,,,,,,,,,,,,,,,,,,,,
,Economic Benefits of Postsecondary Ed for Hispanics/Latinos,,,,,,,,,,,,,,,,,,,,,,,,,,,,,,,,,,,,,,,,,,,,,,,,,,,,,,,,
,Learning While Earning: The New Normal,,,,,,,,,,,,,,,,,,,,,,,,,,,,,,,,,,,,,,,,,,,,,,,,,,,,,,,,
,Report: More High-Paying Than Low-Wage Jobs,,,,,,,,,,,,,,,,,,,,,,,,,,,,,,,,,,,,,,,,,,,,,,,,,,,,,,,,
,What if Postsecondary Education Actually Was the Great Equalizer?,,,,,,,,,,,,,,,,,,,,,,,,,,,,,,,,,,,,,,,,,,,,,,,,,,,,,,,,
,The Economic Value of College Majors,,x,,,,,,x,,,,,x,,,,,,,,,,,,,,,,,,,,x,x,,,,,,,,,,,,,,,,,,,,,,
,Why Your First Job Matters,,,,,,,,,,,,,,,,,,,,,,,,,,,,,,,,,,,,,,,,,,,,,,,,,,,,,,,,
,CHCI Capitol Hill Policy Briefing Series,,,,,,,,,,,,,,,,,,,,,,,,,,,,,,,,,,,,,,,,,,,,,,,,,,,,,,,,
,From Hard Times to Better Times,,x,,,,,,x,x,,,,x,,,,,,,,,,,,,,,,,,,,x,x,,,x,,,,,,,,,,,x,,,,,,,,
,CEW's New Website Preview,,,,,,,,,,,,,,,,,,,,,,,,,,,,,,,,,,,,,,,,,,,,,,,,,,,,,,,,
,CEW's New Website Preview,,,,,,,,,,,,,,,,,,,,,,,,,,,,,,,,,,,,,,,,,,,,,,,,,,,,,,,,
,Conference Access and Excellence: Bridging the Gap in Higher Education,,,,,,,,,,,,,,,,,,,,,,,,,,,,,,,,,,,,,,,,,,,,,,,,,,,,,,,,
,Dr. Stephen Rose on Career Accelerator,,,,,,,,,,,,,,,,,,,,,,,,,,,,,,,,,,,,,,,,,,,,,,,,,,,,,,,,
,Dr. Carnevale Speaks About The College Advantage,,,,,,,,,,,,,,,,,,,,,,,,,,,,,,,,,,,,,,,,,,,,,,,,,,,,,,,,
,Powering America's Future by Empowering Workers,,,,,,,,,,,,,,,,,,,,,,,,,,,,,,,,,,,,,,,,,,,,,,,,,,,,,,,,
,Senate Budget Committee Hearing: Federal Investments in Communities,,,,,,,,,,,,,,,,,,,,,,,,,,,,,,,,,,,,,,,,,,,,,,,,,,,,,,,,
,Help Wanted: Jobs and Education 2008-2018,,,,,,,,,,,,,,,,,,,,,,,,,,,,,,,,,,,,,,,,,,,,,,,,,,,,,,,,
,Senate HELP Committee Testimony,,,,,,,,,,,,,,,,,,,,,,,,,,,,,,,,,,,,,,,,,,,,,,,,,,,,,,,,
,Improving Postsecondary Education,,,,,,,,,,,,,,,,,,,,,,,,,,,,,,,,,,,,,,,,,,,,,,,,,,,,,,,,
,Higher Education and Economic Recovery,,,,,,,,,,,,,,,,,,,,,,,,,,,,,,,,,,,,,,,,,,,,,,,,,,,,,,,,
,Students Pick Majors That Pay,,,,,,,,,,,,,,,,,,,,,,,,,,,,,,,,,,,,,,,,,,,,,,,,,,,,,,,,
,Documentary: Courageous Learning,,,,,,,,,,,,,,,,,,,,,,,,,,,,,,,,,,,,,,,,,,,,,,,,,,,,,,,,
,Common Core Intrusion,,,,,,,,,,,,,,,,,,,,,,,,,,,,,,,,,,,,,,,,,,,,,,,,,,,,,,,,
,,,,,,,,,,,,,,,,,,,,,,,,,,,,,,,,,,,,,,,,,,,,,,,,,,,,,,,,,
Publication,Blog (CP),,,,,,,,,,,,,,,,,,,,,,,,,,,,,,,,,,,,,,,,,,,,,,,,,,,,,,,,
,"Can Women Close the Wage
Gap through Educational Gains?",x,x,,,,,x,x,,,,,x,,x,,,,,,,,,,,,,,,,,,,,x,,,x,,,,x,,,,x,,,,,x,,,,,
,"Our higher education system is
split into unequal tracks divided
by race",,,,,,,,,,,,,,,,,,,,,,,,,,,,,,,,,,,,,,,,,,,,,,,,,,,,,,,,
,Thinking about college? Pay attention to these 5 rules,,x,,,,,,x,,,,,x,,,,,,,,,,,,,,,,x,,,x,x,x,,,,,,,,,,,,,,,,,x,,,,,
,"Every year, half a million
top-scoring students never get
a college credential",,,,,,,,,,,,,,,,,,,,,,,,,,,,,,,,,,,,,,,,,,,,,,,,,,,,,,,,
,"Latinos: Moving Forward toward
a Promising Future",,,,,,,x,x,x,,,,x,,,,x,,,,,,,,,,,,,,,,,,,,,,,,,,,,,,,,,,x,,,,,
,Nursing: an oasis of opportunity,x,,x,,,,,,,,,,x,,x,,,,,,,,,,,,,,,,,,,,,x,,,x,,,x,,,,x,,,,,x,,,,,
,Top five growing industries for those without a bachelor’s degree,x,,x,x,,,x,,x,x,,,x,,,,,,,,,,,,,,,,,,,x,x,,,,,,,,,,,,,,,,,,x,,,,,
,"Trumping toward college
transparency",,,,,,,,,,,,,,,,,,,,,,,,,,,,,,,,,,,,,,,,,,,,,,,,,,,,,,,,
,"Open information about college
options and outcomes would
help avoid buyer’s remorse",,,,,,,,,,,,,,,,,,,,,,,,,,,,,,,,,,,,,,,,,,,,,,,,,,,,,,,,
,"Hats off to the Class of 2017.
Let the Job Hunt Begin",,,,,,,,,,,,,,,,,,,,,,,,,,,,,,,,,,,,,,,,,,,,,,,,,,,,,,,,
,"Debunking the Five Myths
Behind the Pell Grant",,,,,x,,,,,,x,,x,,,,,,,,,,,,,,,x,,,,,,,,,,,,,,,,,,,,,x,,,,,,,
,"Exploring education and
employment gains among
African Americans",,,,,,,,,,,,,,,,,,,,,,,,,,,,,,,,,,,,,,,,,,,,,,,,,,,,,,,,
,"Trump’s Infrastructure Proposal
Could Yield 11 Million Jobs",,,,,,,,,,,,,,,,,,,,,,,,,,,,,,,,,,,,,,,,,,,,,,,,,,,,,,,,
,"American higher education is far
more effective at helping white
students...",,,,,,,,,,,,,,,,,,,,,,,,,,,,,,,,,,,,,,,,,,,,,,,,,,,,,,,,
,The Return of “Middle-skills” Jobs,,,,,,,,,,,,,,,,,,,,,,,,,,,,,,,,,,,,,,,,,,,,,,,,,,,,,,,,
,"Transparency should be part
of the higher ed bargain",,,,,,,,,,,,,,,,,,,,,,,,,,,,,,,,,,,,,,,,,,,,,,,,,,,,,,,,
,"Reflecting on Hispanic/Latino
education and career
opportunities",,,,,,,,,,,,,,,,,,,,,,,,,,,,,,,,,,,,,,,,,,,,,,,,,,,,,,,,
,"Measuring the impact on
enrollment of Clinton’s free
college plan",,,,,,,,,,,,,,,,,,,,,,,,,,,,,,,,,,,,,,,,,,,,,,,,,,,,,,,,
,"America’s workforce makeover:
college grads’ gain is high
school grads’ pain",,,,,,,,,,,,,,,,,,,,,,,,,,,,,,,,,,,,,,,,,,,,,,,,,,,,,,,,
Publication,Book Chapters (Emma),,,,,,,,,,,,,,,,,,,,,,,,,,,,,,,,,,,,,,,,,,,,,,,,,,,,,,,,
,Learn and Earn: Connecting Education to Careers in the 21st Century,X,X,X,,X,X,X,X,X,X,,,X,X,,,,,,,,,,,,,,,X,X,X,X,X,X,,,X,,,X,,X,,X,X,,X,X,,,X,,,,,
,The Promise of O*Net,,,X,,,X,X,,,,,,X,,,,,,,,,,,,,,,,,,,,,,,,,,,,,,,,,,,,,,X,,,,,
,"Achieving Racial and Economic
Diversity with Race-Blind 
Admission Policy",,,,,X,,X,,,,X,,X,X,,X,,X,,,,X,,X,X,,X,,,,,X,X,X,,,,,X,X,X,,X,,,,,,,,,,,,,
,"Women, Jobs and Opportunity
 in the 21st Century",X,X,X,,X,X,X,,,,X,,X,X,X,,,,,,,,,,,,X,,,,,,X,X,X,X,,,X,X,,X,,,,X,,,,,X,,,,,
,"Get Smart: A 21st-Century
Education for All Women",X,X,X,,X,X,X,,,,X,,X,X,X,,,,,,,,,,,,X,,,,,,X,X,X,X,,,X,X,,X,,,,X,,,,,X,,,,,
,America’s Future Workforce,X,X,,X,,X,X,,,,,,X,,,,X,X,,,,X,,X,X,,X,,,,,X,X,X,,,X,X,X,X,,,,,,,,,,,X,,,,,
,"Two Key Actions to Align
Postsecondary Education
with the Labor Market",,,X,,,X,X,X,X,,,,X,,,,,,,,,,,,,,,,,,,,,,,,X,,,,,,,,X,,,,,,X,,,,,
,"Postsecondary Education and
Economic Opportunity",X,X,X,,,,X,,X,,,,X,,,,,,,,,,,,,,X,,,,,,,,,,,,,,,X,,X,,,,,X,,X,,,,,
,"How Increasing College Access
Is Increasing Inequality,
and What to Do About It",,,,,X,,X,,,,,,X,,,,,,,,,,,,,,X,,,,,X,X,,,,,X,,X,,X,,,,,,,,,,,,,,
,"Socioeconomic Status,
Race/Ethnicity, and
Selective College Admissions",,,,,,,X,,,,X,,X,X,,X,,X,,,,X,,X,X,,X,,,,,,,,,,,X,X,,,,X,,,,,,X,,,,,,,